{
  "circuit": "OR",
  "type_inputs" : "activators",
  "multiple_inputs_at_a_node" : true,
  "num_interior_gene_products" : 4,
  "gene_product_regulation": ["NOT","NOR"],
  "time_to_wait_in_seconds": 10,
  "num_cores" : 4
}